0 5001020
1 5001996
2 5002980
0 5003876
10 5005284
13 5006700
31 5008108
201 5020788
348 5034308
413 5047828
443 5061348
448 5074868
457 5088388
463 5101908
463 5115428
471 5128948
464 5142468
468 5155988
474 5169508
468 5183028
471 5196548
475 5210068
471 5223588
478 5237108
476 5250628
473 5264148
478 5277668
470 5291188
474 5304708
479 5318228
473 5331748
474 5345268
479 5358788
474 5372308
479 5385828
473 5399348
475 5412872
480 5426388
475 5439908
475 5453428
478 5466948
474 5480468
480 5493988
473 5507508
474 5521028
479 5534548
475 5548068
474 5561588
480 5575108
476 5588628
481 5602148
473 5615668
476 5629188
479 5642708
474 5656228
475 5669748
479 5683268
476 5696788
483 5710308
473 5723828
476 5737348
480 5750868
474 5764388
476 5777908
481 5791428
476 5804948
483 5818468
473 5831988
476 5845508
481 5859028
475 5872548
475 5886068
479 5899588
476 5913108
483 5926628
481 5940148
477 5953668
481 5967188
474 5980708
475 5994228
481 6007748
474 6021268
475 6034788
480 6048308
475 6061828
481 6075348
474 6088868
477 6102388
481 6115908
476 6129428
476 6142948
481 6156468
476 6169988
482 6183508
474 6197028
476 6210548
482 6224068
476 6237588
477 6251108
482 6264628
476 6278152
482 6291668
473 6305188
476 6318708
482 6332228
476 6345748
476 6359268
480 6372788
475 6386308
482 6399828
473 6413348
476 6426868
481 6440388
474 6453908
476 6467428
480 6480948
476 6494468
482 6507988
473 6521508
475 6535028
482 6548548
474 6562068
475 6575588
481 6589108
475 6602628
483 6616148
480 6629668
477 6643188
482 6656708
475 6670228
476 6683748
482 6697268
477 6710788
476 6724308
481 6737828
476 6751348
482 6764868
476 6778388
477 6791908
481 6805428
476 6818948
476 6832468
481 6845988
476 6859508
483 6873028
475 6886548
477 6900068
481 6913588
475 6927108
475 6940628
480 6954148
476 6967668
482 6981188
473 6994708
476 7008228
482 7021748
475 7035268
477 7048788
481 7062308
475 7075828
484 7089348
473 7102868
477 7116388
481 7129908
475 7143432
476 7156948
481 7170468
477 7183988
483 7197508
473 7211028
476 7224548
481 7238068
476 7251588
476 7265108
480 7278628
476 7292148
483 7305668
481 7319188
475 7332708
482 7346228
474 7359748
476 7373268
481 7386788
475 7400308
476 7413828
481 7427348
476 7440868
483 7454388
475 7467908
476 7481428
481 7494948
476 7508468
477 7521988
481 7535508
477 7549028
484 7562548
474 7576068
477 7589588
480 7603108
476 7616628
476 7630148
480 7643668
476 7657188
483 7670708
475 7684228
476 7697748
481 7711268
475 7724788
476 7738308
480 7751828
477 7765348
483 7778868
473 7792388
476 7805908
481 7819428
475 7832948
476 7846468
481 7859988
477 7873508
483 7887028
472 7900548
477 7914068
482 7927588
476 7941108
477 7954628
481 7968148
476 7981668
484 7995188
480 8008712
477 8022228
481 8035748
475 8049268
476 8062788
481 8076308
476 8089828
475 8103348
481 8116868
477 8130388
482 8143908
474 8157428
477 8170948
481 8184468
474 8197988
476 8211508
481 8225028
476 8238548
483 8252068
474 8265588
477 8279108
480 8292628
475 8306148
475 8319668
481 8333188
478 8346708
483 8360228
473 8373748
477 8387268
481 8400788
475 8414308
477 8427828
481 8441348
477 8454868
484 8468388
473 8481908
476 8495428
481 8508948
476 8522468
476 8535988
481 8549508
476 8563028
484 8576548
473 8590068
476 8603588
480 8617108
475 8630628
477 8644148
480 8657668
475 8671188
483 8684708
481 8698228
477 8711748
481 8725268
474 8738788
476 8752308
480 8765828
476 8779348
476 8792868
480 8806388
477 8819908
482 8833428
474 8846948
478 8860468
481 8873992
475 8887508
477 8901028
479 8914548
477 8928068
482 8941588
475 8955108
477 8968628
481 8982148
475 8995668
476 9009188
480 9022708
475 9036228
482 9049748
474 9063268
476 9076788
481 9090308
475 9103828
477 9117348
481 9130868
477 9144388
482 9157908
474 9171428
477 9184948
481 9198468
476 9211988
476 9225508
480 9239028
477 9252548
483 9266068
474 9279588
477 9293108
482 9306628
476 9320148
478 9333668
481 9347188
475 9360708
482 9374228
481 9387748
477 9401268
482 9414788
475 9428308
477 9441828
481 9455348
476 9468868
476 9482388
481 9495908
477 9509428
482 9522948
474 9536468
477 9549988
481 9563508
475 9577028
475 9590548
481 9604068
476 9617588
482 9631108
473 9644628
476 9658148
481 9671668
476 9685188
476 9698708
480 9712228
477 9725748
483 9739272
473 9752788
477 9766308
481 9779828
476 9793348
476 9806868
480 9820388
475 9833908
483 9847428
473 9860948
477 9874468
482 9887988
475 9901508
477 9915028
480 9928548
476 9942068
483 9955588
472 9969108
477 9982628
482 9996148
475 10009668
480 10024228
480 10038788
481 10053348
475 10067908
477 10082468
476 10097028
476 10111588
475 10126148
480 10140708
482 10155268
485 10169828
477 10184388
477 10198948
475 10213508
475 10228068
481 10242628
481 10257188
483 10271752
476 10286308
477 10300868
476 10315428
474 10329988
480 10344548
480 10359108
482 10373668
476 10388228
476 10402788
476 10417348
475 10431908
474 10446468
480 10461028
481 10475588
475 10490148
477 10504708
476 10519268
476 10533828
473 10548388
480 10562948
482 10577508
483 10592068
475 10606628
477 10621188
476 10635748
475 10650308
481 10664868
481 10679428
483 10693988
477 10708548
477 10723108
477 10737672
474 10752228
480 10766788
480 10781348
482 10795908
475 10810468
476 10825028
476 10839588
475 10854148
474 10868708
481 10883268
481 10897828
483 10912388
477 10926948
477 10941508
475 10956068
474 10970628
479 10985188
480 10999748
482 11014308
475 11028868
477 11043428
476 11057988
474 11072548
480 11087108
481 11101668
481 11116228
477 11130788
477 11145348
476 11159908
475 11174468
474 11189028
482 11203592
482 11218148
475 11232708
478 11247268
477 11261828
475 11276388
474 11290948
481 11305508
480 11320068
482 11334628
477 11349188
476 11363748
474 11378308
474 11392868
480 11407428
480 11421988
482 11436548
477 11451108
476 11465668
476 11480228
474 11494788
481 11509348
479 11523908
481 11538468
475 11553028
477 11567588
476 11582148
474 11596708
473 11611268
480 11625828
481 11640388
483 11654948
476 11669512
475 11684068
476 11698628
474 11713188
480 11727748
481 11742308
482 11756868
476 11771428
475 11785988
476 11800548
475 11815108
481 11829668
481 11844228
483 11858788
476 11873348
476 11887908
476 11902468
474 11917028
473 11931588
482 11946148
481 11960708
476 11975268
477 11989828
475 12004388
475 12018948
473 12033508
481 12048068
480 12062628
482 12077188
477 12091748
477 12106308
476 12120868
474 12135432
480 12149988
482 12164548
483 12179108
476 12193668
477 12208228
477 12222788
476 12237348
479 12251908
481 12266468
482 12281028
477 12295588
476 12310148
476 12324708
474 12339268
473 12353828
481 12368388
482 12382948
483 12397508
476 12412068
476 12426628
476 12441188
474 12455748
480 12470308
482 12484868
482 12499428
475 12513988
476 12528548
477 12543108
474 12557668
480 12572228
481 12586788
481 12601352
475 12615908
476 12630468
475 12645028
475 12659588
472 12674148
480 12688708
482 12703268
477 12717828
476 12732388
477 12746948
475 12761508
473 12776068
480 12790628
482 12805188
482 12819748
476 12834308
476 12848868
476 12863428
474 12877988
481 12892548
481 12907108
481 12921668
477 12936228
477 12950788
475 12965348
474 12979908
481 12994468
481 13009028
481 13023588
475 13038148
476 13052708
476 13067272
476 13081828
474 13096388
481 13110948
481 13125508
482 13140068
476 13154628
477 13169188
477 13183748
474 13198308
480 13212868
480 13227428
483 13241988
477 13256548
476 13271108
475 13285668
475 13300228
480 13314788
481 13329348
481 13343908
476 13358468
475 13373028
476 13387588
474 13402148
473 13416708
480 13431268
481 13445828
477 13460388
475 13474948
477 13489508
476 13504068
475 13518628
480 13533192
481 13547748
483 13562308
476 13576868
476 13591428
476 13605988
475 13620548
480 13635108
480 13649668
483 13664228
475 13678788
475 13693348
476 13707908
475 13722468
480 13737028
480 13751588
481 13766148
476 13780708
477 13795268
476 13809828
475 13824388
474 13838948
480 13853508
480 13868068
483 13882628
476 13897188
475 13911748
476 13926308
473 13940868
480 13955428
481 13969988
483 13984548
475 13999112
476 14013668
476 14028228
475 14042788
480 14057348
481 14071908
481 14086468
477 14101028
476 14115588
476 14130148
476 14144708
473 14159268
480 14173828
481 14188388
475 14202948
476 14217508
477 14232068
474 14246628
474 14261188
480 14275748
481 14290308
483 14304868
477 14319428
476 14333988
475 14348548
474 14363108
481 14377668
480 14392228
483 14406788
476 14421348
476 14435908
476 14450468
474 14465032
481 14479588
481 14494148
480 14508708
477 14523268
477 14537828
475 14552388
475 14566948
472 14581508
480 14596068
481 14610628
483 14625188
475 14639748
477 14654308
475 14668868
475 14683428
481 14697988
480 14712548
482 14727108
477 14741668
477 14756228
475 14770788
475 14785348
480 14799908
481 14814468
482 14829028
476 14843588
477 14858148
475 14872708
475 14887268
473 14901828
480 14916388
482 14930952
475 14945508
476 14960068
475 14974628
475 14989188
474 15003748
480 15018308
480 15032868
483 15047428
477 15061988
477 15076548
476 15091108
474 15105668
480 15120228
481 15134788
481 15149348
475 15163908
476 15178468
475 15193028
475 15207588
482 15222148
480 15236708
481 15251268
476 15265828
476 15280388
476 15294948
476 15309508
473 15324068
480 15338628
482 15353188
483 15367748
476 15382308
477 15396872
475 15411428
474 15425988
480 15440548
480 15455108
483 15469668
477 15484228
477 15498788
476 15513348
475 15527908
481 15542468
481 15557028
482 15571588
476 15586148
477 15600708
476 15615268
474 15629828
472 15644388
480 15658948
482 15673508
476 15688068
477 15702628
477 15717188
476 15731748
474 15746308
481 15760868
480 15775428
483 15789988
477 15804548
475 15819108
475 15833668
474 15848228
480 15862792
479 15877348
481 15891908
476 15906468
475 15921028
476 15935588
475 15950148
479 15964708
479 15979268
481 15993828
476 16008388
476 16022948
476 16037508
474 16052068
473 16066628
480 16081188
481 16095748
482 16110308
475 16124868
476 16139428
475 16153988
475 16168548
481 16183108
481 16197668
483 16212228
477 16226788
476 16241348
475 16255908
475 16270468
481 16285028
481 16299588
482 16314148
476 16328712
477 16343268
475 16357828
474 16372388
473 16386948
481 16401508
482 16416068
476 16430628
475 16445188
475 16459748
474 16474308
473 16488868
481 16503428
482 16517988
483 16532548
476 16547108
476 16561668
476 16576228
474 16590788
479 16605348
480 16619908
482 16634468
476 16649028
476 16663588
476 16678148
474 16692708
479 16707268
481 16721828
480 16736388
475 16750948
476 16765508
476 16780068
475 16794632
473 16809188
481 16823748
481 16838308
482 16852868
476 16867428
477 16881988
476 16896548
473 16911108
480 16925668
480 16940228
481 16954788
476 16969348
476 16983908
475 16998468
475 17013028
480 17027588
480 17042148
482 17056708
476 17071268
476 17085828
475 17100388
474 17114948
472 17129508
480 17144068
482 17158628
477 17173188
477 17187748
477 17202308
477 17216868
474 17231428
480 17245988
482 17260552
482 17275108
476 17289668
477 17304228
476 17318788
474 17333348
480 17347908
480 17362468
481 17377028
476 17391588
477 17406148
476 17420708
474 17435268
480 17449828
480 17464388
481 17478948
475 17493508
475 17508068
476 17522628
474 17537188
474 17551748
480 17566308
481 17580868
482 17595428
476 17609988
476 17624548
475 17639108
474 17653668
479 17668228
481 17682788
482 17697348
476 17711908
475 17726472
475 17741028
474 17755588
480 17770148
481 17784708
481 17799268
476 17813828
476 17828388
476 17842948
475 17857508
472 17872068
480 17886628
480 17901188
476 17915748
477 17930308
475 17944868
475 17959428
473 17973988
480 17988548
480 18003108
483 18017668
476 18032228
476 180467